{
    "_links": {
        "self": {
            "href": "http:\/\/default\/content-theme\/quality-improvement?_format=hal_json"
        },
        "type": {
            "href": "http:\/\/drupal.org\/rest\/type\/taxonomy_term\/content_theme"
        }
    },
    "tid": [
        {
            "value": 9
        }
    ],
    "uuid": [
        {
            "value": "0fbd3453-bb67-4da7-9bf1-cb4e5aebc140"
        }
    ],
    "langcode": [
        {
            "value": "en",
            "lang": "en"
        }
    ],
    "vid": [
        {
            "target_id": "content_theme"
        }
    ],
    "name": [
        {
            "value": "Quality Improvement",
            "lang": "en"
        }
    ],
    "weight": [
        {
            "value": 0
        }
    ],
    "changed": [
        {
            "value": 1495653838,
            "lang": "en"
        }
    ],
    "default_langcode": [
        {
            "value": true,
            "lang": "en"
        }
    ]
}