{
    "_links": {
        "self": {
            "href": "http:\/\/default\/staff-role\/board-directors?_format=hal_json"
        },
        "type": {
            "href": "http:\/\/drupal.org\/rest\/type\/taxonomy_term\/staff_role"
        }
    },
    "tid": [
        {
            "value": 3
        }
    ],
    "uuid": [
        {
            "value": "f93eae8d-9e2d-4e54-ac69-c2a0d204649c"
        }
    ],
    "langcode": [
        {
            "value": "en",
            "lang": "en"
        }
    ],
    "vid": [
        {
            "target_id": "staff_role"
        }
    ],
    "name": [
        {
            "value": "Board of Directors",
            "lang": "en"
        }
    ],
    "weight": [
        {
            "value": 0
        }
    ],
    "changed": [
        {
            "value": 1495652817,
            "lang": "en"
        }
    ],
    "default_langcode": [
        {
            "value": true,
            "lang": "en"
        }
    ]
}