{
    "_links": {
        "self": {
            "href": ""
        },
        "type": {
            "href": "http:\/\/drupal.org\/rest\/type\/paragraph\/simple_text_area"
        },
        "http:\/\/drupal.org\/rest\/relation\/paragraph\/simple_text_area\/uid": [
            {
                "href": "http:\/\/default\/user\/2?_format=hal_json",
                "lang": "en"
            }
        ],
        "http:\/\/drupal.org\/rest\/relation\/paragraph\/simple_text_area\/revision_uid": [
            {
                "href": "http:\/\/default\/user\/2?_format=hal_json"
            }
        ]
    },
    "id": [
        {
            "value": 619
        }
    ],
    "uuid": [
        {
            "value": "164f2ce9-598b-43e3-a06c-00aa23af9392"
        }
    ],
    "revision_id": [
        {
            "value": 2718
        }
    ],
    "type": [
        {
            "target_id": "simple_text_area"
        }
    ],
    "langcode": [
        {
            "value": "en",
            "lang": "en"
        }
    ],
    "_embedded": {
        "http:\/\/drupal.org\/rest\/relation\/paragraph\/simple_text_area\/uid": [
            {
                "_links": {
                    "self": {
                        "href": "http:\/\/default\/user\/2?_format=hal_json"
                    },
                    "type": {
                        "href": "http:\/\/drupal.org\/rest\/type\/user\/user"
                    }
                },
                "uuid": [
                    {
                        "value": "5732b0f3-6337-4f53-a359-a4af3861e99a"
                    }
                ],
                "lang": "en"
            }
        ],
        "http:\/\/drupal.org\/rest\/relation\/paragraph\/simple_text_area\/revision_uid": [
            {
                "_links": {
                    "self": {
                        "href": "http:\/\/default\/user\/2?_format=hal_json"
                    },
                    "type": {
                        "href": "http:\/\/drupal.org\/rest\/type\/user\/user"
                    }
                },
                "uuid": [
                    {
                        "value": "5732b0f3-6337-4f53-a359-a4af3861e99a"
                    }
                ]
            }
        ]
    },
    "status": [
        {
            "value": true,
            "lang": "en"
        }
    ],
    "created": [
        {
            "value": 1501221151,
            "lang": "en"
        }
    ],
    "parent_id": [
        {
            "value": "553"
        }
    ],
    "parent_type": [
        {
            "value": "node"
        }
    ],
    "parent_field_name": [
        {
            "value": "field_sections"
        }
    ],
    "behavior_settings": [
        {
            "value": "a:0:{}"
        }
    ],
    "default_langcode": [
        {
            "value": true,
            "lang": "en"
        }
    ],
    "field_apply_section_spacing": [
        {
            "value": false,
            "lang": "en"
        }
    ],
    "field_constrain_width": [
        {
            "value": true
        }
    ],
    "field_text": [
        {
            "value": "<p>This is an example campaign.<\/p>\r\n",
            "format": "basic_html",
            "lang": "en"
        }
    ]
}