{
    "_links": {
        "self": {
            "href": "http:\/\/default\/about\/team?_format=hal_json"
        },
        "type": {
            "href": "http:\/\/drupal.org\/rest\/type\/node\/page"
        },
        "http:\/\/drupal.org\/rest\/relation\/node\/page\/uid": [
            {
                "href": "http:\/\/default\/user\/3?_format=hal_json",
                "lang": "en"
            }
        ],
        "http:\/\/drupal.org\/rest\/relation\/node\/page\/revision_uid": [
            {
                "href": "http:\/\/default\/user\/3?_format=hal_json"
            }
        ],
        "http:\/\/drupal.org\/rest\/relation\/node\/page\/field_sections": [
            {
                "href": "",
                "lang": "en"
            }
        ]
    },
    "nid": [
        {
            "value": 121
        }
    ],
    "uuid": [
        {
            "value": "c17b2c8f-5171-4ea5-8196-d6bef68534f8"
        }
    ],
    "vid": [
        {
            "value": 212
        }
    ],
    "langcode": [
        {
            "value": "en",
            "lang": "en"
        }
    ],
    "type": [
        {
            "target_id": "page"
        }
    ],
    "status": [
        {
            "value": true,
            "lang": "en"
        }
    ],
    "title": [
        {
            "value": "Team",
            "lang": "en"
        }
    ],
    "_embedded": {
        "http:\/\/drupal.org\/rest\/relation\/node\/page\/uid": [
            {
                "_links": {
                    "self": {
                        "href": "http:\/\/default\/user\/3?_format=hal_json"
                    },
                    "type": {
                        "href": "http:\/\/drupal.org\/rest\/type\/user\/user"
                    }
                },
                "uuid": [
                    {
                        "value": "8550f708-194d-42a0-9f52-157114ebaffd"
                    }
                ],
                "lang": "en"
            }
        ],
        "http:\/\/drupal.org\/rest\/relation\/node\/page\/revision_uid": [
            {
                "_links": {
                    "self": {
                        "href": "http:\/\/default\/user\/3?_format=hal_json"
                    },
                    "type": {
                        "href": "http:\/\/drupal.org\/rest\/type\/user\/user"
                    }
                },
                "uuid": [
                    {
                        "value": "8550f708-194d-42a0-9f52-157114ebaffd"
                    }
                ]
            }
        ],
        "http:\/\/drupal.org\/rest\/relation\/node\/page\/field_sections": [
            {
                "_links": {
                    "self": {
                        "href": ""
                    },
                    "type": {
                        "href": "http:\/\/drupal.org\/rest\/type\/paragraph\/simple_text_area"
                    }
                },
                "uuid": [
                    {
                        "value": "d556eaf9-e0c1-4abd-99de-9a65c5174b86"
                    }
                ],
                "lang": "en",
                "target_revision_id": "316"
            }
        ]
    },
    "created": [
        {
            "value": 1496846910,
            "lang": "en"
        }
    ],
    "changed": [
        {
            "value": 1496848239,
            "lang": "en"
        }
    ],
    "promote": [
        {
            "value": false
        }
    ],
    "sticky": [
        {
            "value": false,
            "lang": "en"
        }
    ],
    "revision_timestamp": [
        {
            "value": 1496848239
        }
    ],
    "revision_translation_affected": [
        {
            "value": true,
            "lang": "en"
        }
    ],
    "default_langcode": [
        {
            "value": true,
            "lang": "en"
        }
    ],
    "field_meta_tags": [
        {
            "value": "a:0:{}",
            "lang": "en"
        }
    ]
}