{
    "_links": {
        "self": {
            "href": "http:\/\/default\/block\/8?_format=hal_json"
        },
        "type": {
            "href": "http:\/\/drupal.org\/rest\/type\/block_content\/basic"
        }
    },
    "id": [
        {
            "value": 8
        }
    ],
    "uuid": [
        {
            "value": "ed281502-98b0-4550-afbc-eb8e5f955199"
        }
    ],
    "revision_id": [
        {
            "value": 8
        }
    ],
    "langcode": [
        {
            "value": "en",
            "lang": "en"
        }
    ],
    "type": [
        {
            "target_id": "basic"
        }
    ],
    "info": [
        {
            "value": "Timeline",
            "lang": "en"
        }
    ],
    "changed": [
        {
            "value": 1500057948,
            "lang": "en"
        }
    ],
    "revision_created": [
        {
            "value": 1500057948
        }
    ],
    "revision_translation_affected": [
        {
            "value": true,
            "lang": "en"
        }
    ],
    "default_langcode": [
        {
            "value": true,
            "lang": "en"
        }
    ],
    "body": [
        {
            "value": "<div id=\"visualization\">&nbsp;<\/div>",
            "format": "full_html",
            "summary": "",
            "lang": "en"
        }
    ]
}